location,iso_code,continent,date,total_cases,total_deaths,total_tests,new_tests_smoothed,new_tests_smoothed_per_thousand,tests_per_case,positive_rate,stringency_index,population,population_density,median_age,aged_65_older,aged_70_older,gdp_per_capita,extreme_poverty,cardiovasc_death_rate,diabetes_prevalence,female_smokers,male_smokers,handwashing_facilities,hospital_beds_per_thousand,life_expectancy,Mortality%,Longitude,Latitude
Afghanistan,AFG,Asia,2020-08-06,36896.0,1298.0,,,,,,84.26,38928341.0,54.422,18.6,2.5810000000000004,1.337,1803.987,,597.029,9.59,,,37.746,0.5,64.83,0.01,66,33
Albania,ALB,Europe,2020-08-06,5889.0,182.0,,,,,,89.81,2877800.0,104.87100000000001,38.0,13.187999999999999,8.642999999999999,11803.431,1.1,304.195,10.08,7.1,51.2,,2.89,78.57,0.01,19,41
Algeria,DZA,Africa,2020-08-06,33055.0,1261.0,,,,,,92.13,43851043.0,17.348,29.1,6.211,3.8569999999999998,13913.839,0.5,278.36400000000003,6.73,0.7,30.4,83.741,1.9,76.88,0.01,2,28
Andorra,AND,Europe,2020-08-06,939.0,52.0,,,,,,56.48,77265.0,163.755,,,,,,109.135,7.97,29.0,37.8,,,83.73,0.01,1,42
Angola,AGO,Africa,2020-08-06,1344.0,59.0,,,,,,90.74,32866268.0,23.89,16.8,2.405,1.3619999999999999,5819.495,,276.045,3.94,,,26.664,,61.15,0.01,17,-11
Anguilla,AIA,North America,2020-08-06,3.0,0.0,,,,,,82.41,15002.0,,,,,,,,,,,,,81.88,0.01,-63,18
Antigua and Barbuda,ATG,North America,2020-08-06,92.0,3.0,,,,,,,97928.0,231.845,32.1,6.933,4.631,21490.943,,191.511,13.17,,,,3.8,77.02,0.01,-61,17
Argentina,ARG,South America,2020-08-06,213522.0,4009.0,671066.0,12311.0,0.272,18.374,0.534,100.0,45195777.0,16.177,31.9,11.198,7.441,18933.907,0.6,191.032,5.5,16.2,27.7,,5.0,76.67,0.5974077065445128,-64,-34
Armenia,ARM,Asia,2020-08-06,39586.0,770.0,,,,,,,2963234.0,102.931,35.7,11.232000000000001,7.571000000000001,8787.58,1.8,341.01,7.11,1.5,52.1,94.04299999999999,4.2,75.09,0.01,44,40
Aruba,ABW,North America,2020-08-06,171.0,3.0,,,,,,88.89,106766.0,584.8,41.2,13.085,7.452000000000001,35973.781,,,11.62,,,,,76.29,0.01,-69,12
Australia,AUS,Oceania,2020-08-06,19444.0,247.0,4552081.0,72502.0,2.843,4924.769,0.04,75.93,25499881.0,3.202,37.9,15.504000000000001,10.129,44648.71,0.5,107.791,5.07,13.0,16.5,,3.84,83.44,0.005426089737858355,134,-24
Austria,AUT,Europe,2020-08-06,21575.0,719.0,937275.0,14241.0,1.581,250.023,0.214,85.19,9006400.0,106.749,44.4,19.202,13.748,45436.685999999994,0.7,145.183,6.35,28.4,30.9,,7.37,81.54,0.0767117441519298,13,47
Azerbaijan,AZE,Asia,2020-08-06,33103.0,476.0,,,,,,96.3,10139175.0,119.309,32.4,6.018,3.8710000000000004,15847.419,,559.812,7.11,0.3,42.5,83.241,4.7,73.0,0.01,47,40
Bahamas,BHS,North America,2020-08-06,751.0,14.0,,,,,,,393248.0,39.497,34.3,8.996,5.2,27717.847,,235.954,13.17,3.1,20.4,,2.9,73.92,0.01,-78,24
Bahrain,BHR,Asia,2020-08-06,42514.0,154.0,867534.0,10931.0,6.4239999999999995,140.467,0.08,78.7,1701583.0,1935.9070000000002,32.4,2.372,1.3869999999999998,43290.705,,151.689,16.52,5.8,37.6,,2.0,77.29,0.017751465648608585,50,26
Bangladesh,BGD,Asia,2020-08-06,246674.0,3267.0,1201256.0,17751.0,0.10800000000000001,135.625,0.251,93.52,164689383.0,1265.036,27.5,5.098,3.262,3523.9840000000004,14.8,298.003,8.38,1.0,44.7,34.808,0.8,72.59,0.271965342941055,90,24
Barbados,BRB,North America,2020-08-06,133.0,7.0,,,,,,88.89,287371.0,664.4630000000001,39.8,14.952,9.472999999999999,16978.068,,170.05,13.57,1.9,14.5,88.469,5.8,79.19,0.01,-59,13
Belarus,BLR,Europe,2020-08-06,68376.0,577.0,1325776.0,18389.0,1.946,855.4,0.115,19.44,9449321.0,46.858000000000004,40.3,14.799000000000001,9.788,17167.967,,443.129,5.18,10.5,46.1,,11.0,74.79,0.043521680887269036,27,53
Belgium,BEL,Europe,2020-08-06,71065.0,9859.0,1766422.0,21071.0,1.818,157.918,0.292,81.48,11589616.0,375.564,41.8,18.570999999999998,12.849,42658.575999999994,0.2,114.898,4.29,25.1,31.4,,5.64,81.63,0.5581339000533281,4,50
Belize,BLZ,North America,2020-08-06,86.0,2.0,,,,,,90.74,397621.0,16.426,25.0,3.853,2.279,7824.361999999999,,176.957,17.11,,,90.083,1.3,74.62,0.01,-88,16
Benin,BEN,Africa,2020-08-06,1914.0,38.0,,,,,,70.83,12123198.0,99.11,18.8,3.2439999999999998,1.942,2064.236,49.6,235.84799999999998,0.99,0.6,12.3,11.035,0.5,61.77,0.01,2,9
Bermuda,BMU,North America,2020-08-06,157.0,9.0,,,,,,96.3,62273.0,1308.82,,,,50669.315,,139.547,13.0,,,,,82.59,0.01,-64,32
Bhutan,BTN,Asia,2020-08-06,105.0,0.0,,,,,,83.33,771612.0,21.188000000000002,28.6,4.885,2.977,8708.597,1.5,217.06599999999997,9.75,,,79.807,1.7,71.78,0.01,90,27
Bolivia,BOL,South America,2020-08-06,85141.0,3385.0,156924.0,2857.0,0.245,19.6,0.6509999999999999,96.3,11673029.0,10.202,25.4,6.704,4.393,6885.829000000001,7.1,204.299,6.89,,,25.383000000000003,1.1,71.51,2.1570951543422296,-64,-17
Bonaire Sint Eustatius and Saba,BES,North America,2020-08-06,13.0,0.0,,,,,,,26221.0,,,,,,,,,,,,,77.79,0.01,-63,17
Bosnia and Herzegovina,BIH,Europe,2020-08-06,13146.0,374.0,,,,,,92.59,3280815.0,68.49600000000001,42.5,16.569000000000003,10.710999999999999,11713.895,0.2,329.635,10.08,30.2,47.7,97.164,3.5,77.4,0.01,17,44
Botswana,BWA,Africa,2020-08-06,804.0,2.0,,,,,,86.11,2351625.0,4.044,25.8,3.9410000000000003,2.242,15807.374,,237.372,4.81,5.7,34.4,,1.8,69.59,0.01,24,-23
Brazil,BRA,South America,2020-08-06,2859073.0,97256.0,2536552.0,50375.0,0.237,,,81.02,212559409.0,25.04,33.5,8.552,5.06,14103.452,3.4,177.96099999999998,8.11,10.1,17.9,,2.2,75.88,3.8341812034604454,-53,-10
British Virgin Islands,VGB,North America,2020-08-06,9.0,1.0,,,,,,,30237.0,207.97299999999998,,,,,,,13.67,,,,,79.07,0.01,-64,18
Brunei,BRN,Asia,2020-08-06,141.0,3.0,,,,,,58.33,437483.0,81.347,32.4,4.591,2.3819999999999997,71809.25099999999,,201.285,12.79,2.0,30.9,,2.7,75.86,0.01,114,4
Bulgaria,BGR,Europe,2020-08-06,12414.0,415.0,287654.0,5673.0,0.816,100.975,0.076,73.15,6948445.0,65.18,44.7,20.801,13.272,18563.307,1.5,424.68800000000005,5.81,30.1,44.4,,7.454,75.05,0.14427054725468794,25,42
Burkina Faso,BFA,Africa,2020-08-06,1158.0,54.0,,,,,,89.81,20903278.0,70.15100000000001,17.6,2.4090000000000003,1.358,1703.102,43.7,269.048,2.42,1.6,23.9,11.877,0.4,61.58,0.01,-1,12
Burundi,BDI,Africa,2020-08-06,400.0,1.0,,,,,,33.33,11890781.0,423.06199999999995,17.5,2.562,1.504,702.225,71.7,293.068,6.05,,,6.144,0.8,61.58,0.01,29,-3
Cambodia,KHM,Asia,2020-08-06,243.0,0.0,,,,,,68.52,16718971.0,90.67200000000001,25.6,4.412,2.385,3645.07,,270.892,4.0,2.0,33.7,66.229,0.8,69.82,0.01,104,13
Cameroon,CMR,Africa,2020-08-06,17718.0,391.0,,,,,,71.3,26545864.0,50.885,18.8,3.165,1.919,3364.926,23.8,244.66099999999997,7.2,,,2.735,1.3,59.29,0.01,13,4
Canada,CAN,North America,2020-08-06,118172.0,8962.0,4272606.0,54505.0,1.444,148.923,0.135,74.54,37742157.0,4.037,41.4,16.984,10.797,44017.59099999999,0.5,105.59899999999999,7.37,12.0,16.6,,2.5,82.43,0.2097548896387825,-107,61
Cape Verde,CPV,Africa,2020-08-06,2689.0,27.0,,,,,,87.96,555988.0,135.58,25.7,4.46,3.437,6222.554,,182.21900000000002,2.42,2.1,16.5,,2.1,72.98,0.01,-24,16
Cayman Islands,CYM,North America,2020-08-06,203.0,1.0,,,,,,,65720.0,256.496,,,,49903.029,,,13.22,,,,,83.92,0.01,-80,19
Central African Republic,CAF,Africa,2020-08-06,4618.0,59.0,,,,,,75.93,4829764.0,7.479,18.3,3.655,2.251,661.24,,435.727,6.1,,,16.602999999999998,1.0,53.28,0.01,19,7
Chad,TCD,Africa,2020-08-06,939.0,75.0,,,,,,88.89,16425859.0,11.833,16.7,2.4859999999999998,1.446,1768.1529999999998,38.4,280.995,6.1,,,5.818,,54.24,0.01,19,15
Chile,CHL,South America,2020-08-06,364723.0,9792.0,1737813.0,22427.0,1.173,13.532,0.591,89.35,19116209.0,24.281999999999996,35.4,11.087,6.938,22767.037,1.3,127.993,8.46,34.2,41.5,,2.11,80.18,0.5634668402181363,-71,-31
China,CHN,Asia,2020-08-06,88328.0,4677.0,,,,,,81.94,1439323774.0,147.674,38.7,10.640999999999998,5.928999999999999,15308.712,0.7,261.899,9.74,1.9,48.4,,4.34,76.91,0.01,104,35
Colombia,COL,South America,2020-08-06,345714.0,11624.0,1761772.0,36995.0,0.727,102.2,0.284,90.74,50882884.0,44.223,32.2,7.646,4.312,13254.948999999999,4.5,124.24,7.44,4.7,13.5,65.38600000000001,1.71,77.29,0.6597902566279858,-73,2
Comoros,COM,Africa,2020-08-06,388.0,7.0,,,,,,,869595.0,437.352,20.4,2.963,1.726,1413.89,18.1,261.51599999999996,11.88,4.4,23.6,15.574000000000002,2.2,64.32,0.01,44,-12
Congo,COG,Africa,2020-08-06,3546.0,58.0,,,,,,97.22,5518092.0,15.405,19.0,3.4019999999999997,2.063,4881.406,37.0,344.094,7.2,1.7,52.3,47.964,,64.57,0.01,15,0
Costa Rica,CRI,North America,2020-08-06,20417.0,191.0,83540.0,1731.0,0.34,49.143,0.397,81.48,5094114.0,96.079,33.6,9.468,5.694,15524.995,1.3,137.97299999999998,8.78,6.4,17.4,83.84100000000001,1.13,80.28,0.22863299018434283,-84,10
Cote d'Ivoire,CIV,Africa,2020-08-06,16349.0,103.0,103624.0,1811.0,0.069,21.404,0.289,80.56,26378275.0,76.399,18.7,2.9330000000000003,1.5819999999999999,3601.006,28.2,303.74,2.42,,,19.351,,57.78,0.09939782289817031,-5,7
Croatia,HRV,Europe,2020-08-06,5376.0,154.0,124383.0,1422.0,0.34600000000000003,2639.0,0.14400000000000002,96.3,4105268.0,73.726,44.0,19.724,13.052999999999999,22669.797000000002,0.7,253.782,5.59,34.3,39.9,,5.54,78.49,0.12381113174629974,17,45
Cuba,CUB,North America,2020-08-06,2726.0,88.0,281595.0,3514.0,0.31,1191.647,0.064,100.0,11326616.0,110.40799999999999,43.1,14.738,9.719,,,190.968,8.27,17.1,53.3,85.198,5.2,78.8,0.031250554874909,-80,23
Curacao,CUW,North America,2020-08-06,31.0,1.0,,,,,,,164100.0,362.644,41.7,16.367,10.068,,,,11.62,,,,,78.88,0.01,-68,12
Cyprus,CYP,Europe,2020-08-06,1180.0,19.0,,,,,,94.44,875899.0,127.65700000000001,37.3,13.415999999999999,8.562999999999999,32415.132,,141.171,9.24,19.6,52.7,,3.4,80.98,0.01,33,34
Czech Republic,CZE,Europe,2020-08-06,17529.0,388.0,722003.0,7147.0,0.667,147.475,0.065,82.41,10708982.0,137.17600000000002,43.3,19.027,11.58,32605.906000000003,,227.485,6.82,30.5,38.3,,6.63,79.38,0.053739388894505975,15,49
Democratic Republic of Congo,COD,Africa,2020-08-06,9252.0,214.0,,869.0,0.01,14.376,0.202,80.56,89561404.0,35.879,17.0,3.02,1.745,808.133,77.1,318.949,6.1,,,4.4719999999999995,,60.68,0.01,23,-2
Denmark,DNK,Europe,2020-08-06,14185.0,616.0,1598560.0,19089.0,3.2960000000000003,971.337,0.175,72.22,5792203.0,136.52,42.3,19.677,12.325,46682.515,0.2,114.76700000000001,6.41,19.3,18.8,,2.5,80.9,0.03853468121309178,10,55
Djibouti,DJI,Africa,2020-08-06,5330.0,59.0,,,,,,100.0,988002.0,41.285,25.4,4.213,2.38,2705.406,22.5,258.03700000000003,6.05,1.7,24.5,,1.4,67.11,0.01,42,11
Dominica,DMA,North America,2020-08-06,18.0,0.0,,,,,,85.19,71991.0,98.56700000000001,,,,9673.367,,227.37599999999998,11.62,,,,3.8,75.0,0.01,-70,19
Dominican Republic,DOM,North America,2020-08-06,75660.0,1222.0,,,,,,97.22,10847904.0,222.873,27.6,6.981,4.419,14600.861,1.6,266.653,8.2,8.5,19.1,55.181999999999995,1.6,74.08,0.01,-70,19
Ecuador,ECU,South America,2020-08-06,88866.0,5847.0,186336.0,2323.0,0.132,,,93.52,17643060.0,66.939,28.1,7.104,4.458,10581.936000000002,3.6,140.44799999999998,5.55,2.0,12.3,80.635,1.5,77.01,3.1378799587841315,-79,-1
Egypt,EGY,Africa,2020-08-06,94875.0,4930.0,,,,,,84.26,102334403.0,97.999,25.3,5.159,2.891,10550.206,1.3,525.432,17.31,0.2,50.1,89.82700000000001,1.6,71.99,0.01,29,26
El Salvador,SLV,North America,2020-08-06,18701.0,513.0,248791.0,2484.0,0.38299999999999995,106.803,0.168,100.0,6486201.0,307.811,27.6,8.273,5.417000000000001,7292.4580000000005,2.2,167.295,8.87,2.5,18.8,90.65,1.3,73.32,0.20619716951175887,-88,13
Equatorial Guinea,GNQ,Africa,2020-08-06,4821.0,83.0,,,,,,,1402985.0,45.193999999999996,22.4,2.846,1.7519999999999998,22604.873,,202.812,7.78,,,24.64,2.1,58.74,0.01,10,1
Eritrea,ERI,Africa,2020-08-06,282.0,0.0,,,,,,93.52,3546427.0,44.303999999999995,19.3,3.6069999999999998,2.171,1510.4589999999998,,311.11,6.05,0.2,11.4,,0.7,66.32,0.01,37,15
Estonia,EST,Europe,2020-08-06,2113.0,63.0,121946.0,1588.0,1.197,822.5,0.127,77.78,1326539.0,31.033,42.7,19.452,13.491,29481.252,0.5,255.56900000000002,4.02,24.5,39.3,,4.69,78.74,0.0516622111426369,25,58
Ethiopia,ETH,Africa,2020-08-06,20336.0,356.0,331266.0,5959.0,0.052000000000000005,808.182,0.061,80.56,114963583.0,104.95700000000001,19.8,3.5260000000000002,2.063,1729.9270000000001,26.7,182.63400000000001,7.47,0.4,8.5,7.96,0.3,66.6,0.10746650727813901,38,10
Faeroe Islands,FRO,Europe,2020-08-06,241.0,0.0,,,,,,,48865.0,35.308,,,,,,,,,,,,80.67,0.01,-7,62
Falkland Islands,FLK,South America,2020-08-06,13.0,0.0,,,,,,,3483.0,,,,,,,,,,,,,81.44,0.01,-59,-51
Fiji,FJI,Oceania,2020-08-06,27.0,1.0,6996.0,157.0,0.175,378.0,0.14300000000000002,88.89,896444.0,49.562,28.6,6.224,3.284,8702.975,1.4,412.82,14.49,10.2,34.8,,2.3,67.44,0.01429388221841052,179,-18
Finland,FIN,Europe,2020-08-06,7512.0,331.0,389288.0,4951.0,0.894,4734.333,0.119,60.19,5540718.0,18.136,42.8,21.228,13.264000000000001,40585.721,,153.507,5.76,18.3,22.6,,3.28,81.91,0.08502702369453978,25,63
France,FRA,Europe,2020-08-06,194029.0,30305.0,,75058.0,1.15,136.99200000000002,0.032,90.74,65273512.0,122.57799999999999,42.0,19.718,13.079,38605.671,,86.06,4.77,30.1,35.6,,5.98,82.66,0.01,1,46
French Polynesia,PYF,Oceania,2020-08-06,62.0,0.0,,,,,,,280904.0,77.324,32.7,7.775,4.593,,,,22.63,,,,,77.66,0.01,-146,-16
Gabon,GAB,Africa,2020-08-06,7787.0,51.0,,,,,,81.48,2225728.0,7.859,23.1,4.45,2.9760000000000004,16562.413,3.4,259.967,7.2,,,,6.3,66.47,0.01,11,0
Gambia,GMB,Africa,2020-08-06,799.0,16.0,,,,,,78.7,2416664.0,207.56599999999997,17.5,2.339,1.4169999999999998,1561.767,10.1,331.43,1.91,0.7,31.2,7.876,1.1,62.05,0.01,-15,13
Georgia,GEO,Asia,2020-08-06,1206.0,17.0,,,,,,100.0,3989175.0,65.032,38.7,14.864,10.244000000000002,9745.079,4.2,496.218,7.11,5.3,55.5,,2.6,73.77,0.01,-83,32
Germany,DEU,Europe,2020-08-06,213067.0,9175.0,8586648.0,81972.0,0.978,218.579,0.096,76.85,83783945.0,237.016,46.6,21.453000000000003,15.957,45229.245,,156.139,8.31,28.2,33.1,,8.0,81.33,0.10685194036136104,10,51
Ghana,GHA,Africa,2020-08-06,39075.0,199.0,405817.0,6242.0,0.201,164.035,0.303,86.11,31072945.0,126.719,21.1,3.385,1.9480000000000002,4227.63,12.0,298.245,4.97,0.3,7.7,41.047,0.9,64.07,0.0490368811557919,-1,8
Gibraltar,GIB,Europe,2020-08-06,189.0,0.0,,,,,,,33691.0,3457.1,,,,,,,,,,,,79.93,0.01,-5,36
Greece,GRC,Europe,2020-08-06,4973.0,210.0,599709.0,20310.0,1.949,703.306,0.096,84.26,10423056.0,83.479,45.3,20.396,14.524000000000001,24574.382,1.5,175.695,4.55,35.3,52.0,,4.21,82.24,0.03501698323686988,21,38
Greenland,GRL,North America,2020-08-06,14.0,0.0,,,,,,77.78,56772.0,0.13699999999999998,,,,,,199.94099999999997,2.16,,,,,71.7,0.01,-42,77
Grenada,GRD,North America,2020-08-06,24.0,0.0,,,,,,,112519.0,317.132,29.4,7.303999999999999,5.021,13593.877,,243.96400000000003,10.71,,,,3.7,72.4,0.01,-61,12
Guam,GUM,Oceania,2020-08-06,397.0,5.0,,,,,,75.93,168783.0,304.128,31.4,9.551,5.492999999999999,,,310.496,21.52,,,,,80.07,0.01,144,13
Guatemala,GTM,North America,2020-08-06,53509.0,2072.0,,,,,,96.3,17915567.0,157.834,22.9,4.694,3.016,7423.808000000001,8.7,155.898,10.18,,,76.665,0.6,74.3,0.01,-89,15
Guernsey,GGY,Europe,2020-08-06,252.0,13.0,,,,,,,67052.0,,,,,,,,,,,,,,0.01,-2,49
Guinea,GIN,Africa,2020-08-06,7575.0,49.0,,,,,,78.7,13132792.0,51.755,19.0,3.135,1.733,1998.9260000000002,35.3,336.717,2.42,,,17.45,0.3,61.6,0.01,-10,10
Guinea-Bissau,GNB,Africa,2020-08-06,2032.0,27.0,,,,,,,1967998.0,66.191,19.4,3.002,1.565,1548.675,67.1,382.474,2.42,,,6.403,,58.32,0.01,-14,12
Guyana,GUY,South America,2020-08-06,509.0,22.0,,,,,,87.04,786559.0,3.952,26.3,5.305,2.8369999999999997,7435.047,,373.159,11.62,,,77.15899999999999,1.6,69.91,0.01,-58,4
Haiti,HTI,North America,2020-08-06,7544.0,171.0,,,,,,87.04,11402533.0,398.44800000000004,24.3,4.8,2.9539999999999997,1653.1729999999998,23.5,430.548,6.65,2.9,23.1,22.863000000000003,0.7,64.0,0.01,-72,19
Honduras,HND,North America,2020-08-06,45098.0,1423.0,,,,,,100.0,9904608.0,82.805,24.9,4.652,2.883,4541.795,16.0,240.208,7.21,2.0,,84.169,0.7,75.27,0.01,-86,15
Hong Kong,HKG,Asia,2020-07-28,,,593962.0,,,,,66.67,7496988.0,7039.714,44.8,16.303,10.158,56054.92,,,8.33,,,,,84.86,0.01,114,22
Hungary,HUN,Europe,2020-08-06,4564.0,599.0,346962.0,4252.0,0.44,874.462,0.063,76.85,9660350.0,108.04299999999999,43.4,18.577,11.975999999999999,26777.561,0.5,278.296,7.55,26.8,34.8,,7.02,76.88,0.17264138435909407,19,47
Iceland,ISL,Europe,2020-08-06,1926.0,10.0,75343.0,1704.0,4.993,3479.0,0.135,53.7,341250.0,3.404,37.3,14.431,9.207,46482.958,0.2,117.992,5.31,14.3,15.2,,2.91,82.99,0.013272633157692155,-18,64
India,IND,Asia,2020-08-06,1964536.0,40699.0,22149351.0,565567.0,0.41,67.888,0.123,100.0,1380004385.0,450.41900000000004,28.2,5.989,3.4139999999999997,6426.674,21.2,282.28,10.39,1.9,20.6,59.55,0.53,69.66,0.1837480475161552,78,22
Indonesia,IDN,Asia,2020-08-06,116871.0,5452.0,922709.0,14292.0,0.052000000000000005,12.047,0.425,80.09,273523621.0,145.725,29.3,5.319,3.053,11188.743999999999,5.7,342.86400000000003,6.32,2.8,76.1,64.204,1.04,71.72,0.5908688438066606,117,-2
International,,,2020-03-10,705.0,7.0,,,,,,,,,,,,,,,,,,,,,0.01,14,50
Iran,IRN,Asia,2020-08-06,317483.0,17802.0,2587083.0,27261.0,0.325,10.94,0.194,64.35,83992953.0,49.831,32.4,5.44,3.182,19082.62,0.2,270.308,9.59,0.8,21.1,,1.5,76.68,0.6881108955530225,54,32
Iraq,IRQ,Asia,2020-08-06,137556.0,5094.0,,,,,,96.3,40222503.0,88.125,20.0,3.1860000000000004,1.9569999999999999,15663.986,2.5,218.612,8.83,,,94.57600000000001,1.4,70.6,0.01,44,33
Ireland,IRL,Europe,2020-08-06,26303.0,1763.0,648084.0,8833.0,1.7890000000000001,682.446,0.261,90.74,4937796.0,69.874,38.7,13.927999999999999,8.677999999999999,67335.293,0.2,126.459,3.28,23.0,25.7,,2.96,82.3,0.2720326377444899,-7,52
Isle of Man,IMN,Europe,2020-08-06,336.0,24.0,,,,,,,85032.0,147.872,,,,,,,,,,,,81.4,0.01,-4,54
Israel,ISR,Asia,2020-08-06,78324.0,565.0,1751025.0,27255.0,3.1489999999999996,444.927,0.081,94.44,8655541.0,402.606,30.6,11.732999999999999,7.359,33132.32,0.5,93.32,6.74,15.4,35.4,,2.99,82.97,0.03226681515112577,34,31
Italy,ITA,Europe,2020-08-06,248803.0,35181.0,4184765.0,43375.0,0.7170000000000001,145.735,0.071,93.52,60461828.0,205.859,47.9,23.021,16.24,35220.084,2.0,113.15100000000001,4.78,19.8,27.8,,3.18,83.51,0.840692368627629,12,42
Jamaica,JAM,North America,2020-08-06,928.0,12.0,,,,,,87.04,2961161.0,266.879,31.4,9.684,6.39,8193.571,,206.537,11.28,5.3,28.6,66.425,1.7,74.47,0.01,-77,18
Japan,JPN,Asia,2020-08-06,42263.0,1026.0,1174639.0,20408.0,0.161,184.243,0.07200000000000001,47.22,126476458.0,347.778,48.2,27.049,18.493,39002.223,,79.37,5.72,11.2,33.7,,13.05,84.63,0.08734598459611848,139,36
Jersey,JEY,Europe,2020-08-06,344.0,31.0,,,,,,,101073.0,,,,,,,,,,,,,,0.01,-2,49
Jordan,JOR,Asia,2020-08-06,1231.0,11.0,,,,,,100.0,10203140.0,109.285,23.2,3.81,2.3609999999999998,8337.49,0.1,208.257,11.75,,,,1.4,74.53,0.01,36,31
Kazakhstan,KAZ,Asia,2020-08-06,95942.0,1058.0,2113795.0,27769.0,1.479,199.569,0.221,89.35,18776707.0,6.681,30.6,6.9910000000000005,4.625,24055.588,0.1,466.792,7.11,7.0,43.1,98.999,6.7,73.6,0.050052157375715244,65,47
Kenya,KEN,Africa,2020-08-06,23873.0,391.0,322923.0,5802.0,0.10800000000000001,103.022,0.13,93.52,53771300.0,87.324,20.0,2.6860000000000004,1.528,2993.028,36.8,218.637,2.92,1.2,20.4,24.651,1.4,66.7,0.12108149620807437,38,1
Kosovo,OWID_KOS,Europe,2020-08-06,9274.0,296.0,,,,,,92.59,1932774.0,168.155,,,,9795.834,0.6,,,,,,,,0.01,20,42
Kuwait,KWT,Asia,2020-08-06,69425.0,468.0,511599.0,4188.0,0.981,6.289,0.268,100.0,4270563.0,232.128,33.7,2.345,1.114,65530.537000000004,,132.235,15.84,2.7,37.0,,2.0,75.49,0.0914778957738385,47,29
Kyrgyzstan,KGZ,Asia,2020-08-06,38659.0,1447.0,,,,,,92.13,6524191.0,32.333,26.3,4.489,2.8819999999999997,3393.474,1.4,436.36199999999997,7.11,3.6,50.5,89.22,4.5,71.45,0.01,74,41
Laos,LAO,Asia,2020-08-06,20.0,0.0,,,,,,96.3,7275556.0,29.715,24.4,4.029,2.322,6397.36,22.7,368.111,4.0,7.3,51.2,49.839,1.5,67.92,0.01,103,20
Latvia,LVA,Europe,2020-08-06,1257.0,32.0,207909.0,2577.0,1.3659999999999999,5152.0,0.038,65.74,1886202.0,31.212,43.9,19.754,14.136,25063.846,0.7,350.06,4.91,25.6,51.0,,5.57,75.29,0.015391349099846567,24,56
Lebanon,LBN,Asia,2020-08-06,5417.0,68.0,,,,,,85.19,6825442.0,594.561,31.1,8.514,5.43,13367.565,,266.591,12.71,26.9,40.7,,2.9,78.93,0.01,35,33
Lesotho,LSO,Africa,2020-08-06,726.0,21.0,,,,,,71.3,2142252.0,73.562,22.2,4.506,2.647,2851.153,59.6,405.126,3.94,0.4,53.9,2.117,,54.33,0.01,28,-29
Liberia,LBR,Africa,2020-08-06,1221.0,78.0,,,,,,87.96,5057677.0,49.126999999999995,19.2,3.057,1.756,752.788,38.6,272.509,2.42,1.5,18.1,1.188,0.8,64.1,0.01,-9,5
Libya,LBY,Africa,2020-08-06,4224.0,96.0,,,,,,100.0,6871287.0,3.623,29.0,4.4239999999999995,2.8160000000000003,17881.509,,341.86199999999997,10.43,,,,3.7,72.91,0.01,18,26
Liechtenstein,LIE,Europe,2020-08-06,89.0,1.0,,,,,,,38137.0,237.012,,,,,,,7.77,,,,2.397,82.49,0.01,9,47
Lithuania,LTU,Europe,2020-08-06,2147.0,81.0,540784.0,6657.0,2.445,1850.0,0.07400000000000001,87.04,2722291.0,45.135,43.5,19.002,13.777999999999999,29524.265,0.7,342.98900000000003,3.67,21.3,38.0,,6.56,75.93,0.014978253794490961,23,55
Luxembourg,LUX,Europe,2020-08-06,7007.0,118.0,439318.0,9903.0,15.82,1102.138,0.16699999999999998,79.63,625976.0,231.447,39.7,14.312000000000001,9.842,94277.965,0.2,128.275,4.42,20.9,26.0,,4.51,82.25,0.02685981453070441,6,49
Macedonia,MKD,Europe,2020-08-06,11201.0,505.0,,,,,,,2083380.0,82.6,39.1,13.26,8.16,13111.214,5.0,322.688,10.08,,,,4.28,75.8,0.01,21,41
Madagascar,MDG,Africa,2020-08-06,12222.0,127.0,,,,,,95.37,27691019.0,43.951,19.6,2.929,1.686,1416.44,77.6,405.994,3.94,,,50.54,0.2,67.04,0.01,46,-18
Malawi,MWI,Africa,2020-08-06,4426.0,136.0,,,,,,57.41,19129955.0,197.519,18.1,2.9789999999999996,1.7830000000000001,1095.042,71.4,227.34900000000002,3.94,4.4,24.7,8.704,1.3,64.26,0.01,33,-13
Malaysia,MYS,Asia,2020-08-06,9023.0,125.0,1001090.0,26673.0,0.8240000000000001,2245.25,0.165,75.0,32365998.0,96.25399999999999,29.9,6.292999999999999,3.407,26808.164,0.1,260.942,16.74,1.0,42.4,,1.9,76.16,0.012486389835079763,102,4
Maldives,MDV,Asia,2020-08-06,4594.0,19.0,82208.0,1157.0,2.14,1022.0,0.141,,540542.0,1454.433,30.6,4.12,2.875,15183.616000000002,,164.905,9.19,2.1,55.0,95.803,,78.92,0.023112105877773452,73,4
Mali,MLI,Africa,2020-08-06,2546.0,124.0,,,,,,72.22,20250834.0,15.196,16.4,2.519,1.486,2014.306,,268.024,2.42,1.6,23.0,52.232,0.1,59.31,0.01,-2,16
Malta,MLT,Europe,2020-08-06,842.0,9.0,125685.0,1463.0,3.313,5873.0,0.04,,441539.0,1454.037,42.4,19.426,11.324000000000002,36513.323,0.2,168.71099999999998,8.83,20.9,30.2,,4.485,82.53,0.007160759040458289,14,35
Mauritania,MRT,Africa,2020-08-06,6382.0,157.0,,,,,,77.78,4649660.0,4.289,20.3,3.138,1.7919999999999998,3597.633,6.0,232.347,2.42,,,15.95,,64.92,0.01,-9,20
Mauritius,MUS,Africa,2020-08-06,344.0,10.0,,,,,,82.41,1271767.0,622.962,37.4,10.945,5.8839999999999995,20292.745,0.5,224.644,22.02,3.2,40.7,,3.4,74.99,0.01,57,-20
Mexico,MEX,North America,2020-08-06,456100.0,49698.0,952323.0,12745.0,0.099,406.0,0.7609999999999999,82.41,128932753.0,66.444,29.3,6.857,4.321000000000001,17336.468999999997,2.5,152.783,13.06,6.9,21.4,87.84700000000001,1.38,75.05,5.218607552269556,-99,19
Moldova,MDA,Europe,2020-08-06,26222.0,823.0,,,,,,87.04,4033963.0,123.655,37.6,10.864,6.955,5189.972,0.2,408.50199999999995,5.72,5.9,44.6,86.979,5.8,71.9,0.01,28,47
Monaco,MCO,Europe,2020-08-06,125.0,9.0,,,,,,,39244.0,19347.5,,,,,,,5.46,,,,13.8,86.75,0.01,7,43
Mongolia,MNG,Asia,2020-08-06,293.0,0.0,,,,,,90.74,3278292.0,1.98,28.6,4.031000000000001,2.421,11840.846000000001,0.5,460.043,4.82,5.5,46.5,71.18,7.0,69.87,0.01,103,46
Montenegro,MNE,Europe,2020-08-06,3411.0,57.0,,,,,,,628062.0,46.28,39.1,14.762,9.395,16409.288,1.0,387.305,10.08,44.0,47.9,,3.861,76.88,0.01,19,42
Montserrat,MSR,North America,2020-08-06,13.0,1.0,,,,,,,4999.0,,,,,,,,,,,,,74.16,0.01,-62,16
Morocco,MAR,Africa,2020-08-06,28500.0,435.0,1316861.0,21250.0,0.5760000000000001,275.048,0.235,93.52,36910558.0,80.08,29.6,6.769,4.209,7485.013000000001,1.0,419.14599999999996,7.14,0.8,47.1,,1.1,76.68,0.0330330991653637,-7,31
Mozambique,MOZ,Africa,2020-08-06,2079.0,15.0,,,,,,80.56,31255435.0,37.728,17.7,3.158,1.87,1136.103,62.9,329.94199999999995,3.3,5.1,29.1,12.227,0.7,60.85,0.01,34,-19
Myanmar,MMR,Asia,2020-08-06,357.0,6.0,120292.0,1857.0,0.034,2636.667,0.032,86.11,54409794.0,81.721,29.1,5.732,3.12,5591.597,6.4,202.104,4.61,6.3,35.2,79.28699999999999,0.9,67.13,0.004987862867023576,95,17
Namibia,NAM,Africa,2020-08-06,2540.0,12.0,,,,,,73.15,2540916.0,3.0780000000000003,22.0,3.552,2.085,9541.808,13.4,243.81099999999998,3.94,9.7,34.2,44.6,,63.71,0.01,17,-23
Nepal,NPL,Asia,2020-08-06,21390.0,60.0,398907.0,7376.0,0.253,1267.0,0.113,96.3,29136808.0,204.43,25.0,5.809,3.2119999999999997,2442.804,15.0,260.797,7.26,9.5,37.8,47.782,0.3,70.78,0.015041099805217758,84,28
Netherlands,NLD,Europe,2020-08-06,56381.0,6153.0,1079860.0,16504.0,0.963,219.697,0.269,79.63,17134873.0,508.54400000000004,43.2,18.779,11.880999999999998,48472.545,,109.361,5.29,24.4,27.3,,3.32,82.28,0.5697960846776434,5,52
New Caledonia,NCL,Oceania,2020-08-06,22.0,0.0,,,,,,,285491.0,15.342,33.4,9.954,6.489,,,,23.36,,,,,77.55,0.01,164,-20
New Zealand,NZL,Oceania,2020-08-06,1219.0,22.0,482929.0,7467.0,1.548,28707.0,0.039,96.3,4822233.0,18.206,37.9,15.322000000000001,9.72,36085.843,,128.797,8.08,14.8,17.2,,2.61,82.29,0.004555535078655455,172,-41
Nicaragua,NIC,North America,2020-08-06,3902.0,123.0,,,,,,16.67,6624554.0,51.667,27.3,5.445,3.5189999999999997,5321.444,3.2,137.016,11.47,,,,0.9,74.48,0.01,-85,12
Niger,NER,Africa,2020-08-06,1152.0,69.0,,,,,,61.11,24206636.0,16.955,15.1,2.553,1.3780000000000001,926.0,44.5,238.33900000000003,2.42,0.1,15.4,8.978,0.3,62.42,0.01,9,17
Nigeria,NGA,Africa,2020-08-06,44890.0,927.0,304221.0,7789.0,0.038,13.786,0.265,85.65,206139587.0,209.588,18.1,2.7510000000000003,1.4469999999999998,5338.454000000001,,181.013,2.42,0.6,10.8,41.949,,54.69,0.30471269241768323,7,9
Northern Mariana Islands,MNP,Oceania,2020-08-06,46.0,2.0,,,,,,,57557.0,119.87799999999999,,,,,,194.99400000000003,,,,,,76.74,0.01,145,14
Norway,NOR,Europe,2020-08-06,9362.0,256.0,444059.0,5201.0,0.9590000000000001,512.75,0.101,79.63,5421242.0,14.462,39.7,16.820999999999998,10.812999999999999,64800.057,0.2,114.316,5.31,19.6,20.7,,3.6,82.4,0.05764999695986344,11,64
Oman,OMN,Asia,2020-08-06,80286.0,488.0,,4609.0,0.903,3.606,0.412,100.0,5106622.0,14.98,30.7,2.355,1.53,37960.709,,266.342,12.61,0.5,15.6,97.4,1.6,77.86,0.01,57,21
Pakistan,PAK,Asia,2020-08-06,281863.0,6035.0,2058872.0,29216.0,0.132,29.471,0.224,96.3,220892331.0,255.57299999999998,23.5,4.495,2.78,5034.708,4.0,423.031,8.35,2.8,36.7,59.607,0.6,67.27,0.2931216705069572,71,30
Palestine,PSE,Asia,2020-08-06,16981.0,91.0,,,,,,96.3,5101416.0,778.202,20.4,3.043,1.726,4449.898,1.0,265.91,10.59,,,,,74.05,0.01,35,31
Panama,PAN,North America,2020-08-06,70231.0,1553.0,227309.0,3308.0,0.767,16.265,0.409,93.52,4314768.0,55.133,29.7,7.917999999999999,5.03,22267.037,2.2,128.346,8.33,2.4,9.9,,2.3,78.51,0.6832109595308589,-81,8
Papua New Guinea,PNG,Oceania,2020-08-06,153.0,2.0,,,,,,83.8,8947027.0,18.22,22.6,3.8080000000000003,2.142,3823.1940000000004,,561.494,17.65,23.5,48.8,,,64.5,0.01,144,-5
Paraguay,PRY,South America,2020-08-06,6060.0,61.0,130786.0,1993.0,0.27899999999999997,118.045,0.104,94.44,7132530.0,17.144000000000002,26.5,6.377999999999999,3.833,8827.01,1.7,199.128,8.27,5.0,21.6,79.602,1.3,74.25,0.04664107779120089,-58,-23
Peru,PER,South America,2020-08-06,447624.0,20228.0,376749.0,5964.0,0.18100000000000002,,,96.3,32971846.0,25.129,29.1,7.151,4.455,12236.706,3.5,85.755,5.95,4.8,,,1.6,76.74,5.369091888764137,-75,-6
Philippines,PHL,Asia,2020-08-06,115980.0,2123.0,1534595.0,32151.0,0.293,44.9,0.117,100.0,109581085.0,351.87300000000005,25.2,4.803,2.661,7599.188,,370.43699999999995,7.07,7.8,40.8,78.46300000000001,1.0,71.23,0.138342689765052,122,12
Poland,POL,Europe,2020-08-06,48789.0,1756.0,2027951.0,20513.0,0.542,79.288,0.03,83.33,37846605.0,124.027,41.8,16.762999999999998,10.202,27216.445,,227.331,5.91,23.3,33.1,,6.62,78.73,0.08658986336454874,19,52
Portugal,PRT,Europe,2020-08-06,51848.0,1740.0,1688567.0,15857.0,1.555,83.29700000000003,0.1,87.96,10196707.0,112.37100000000001,46.2,21.502,14.924000000000001,27936.896,0.5,127.84200000000001,9.85,16.3,30.0,,3.39,82.05,0.10304595553507798,-7,40
Puerto Rico,PRI,North America,2020-08-06,19651.0,246.0,,,,,,93.52,2860840.0,376.23199999999997,38.2,15.168,9.829,35044.67,,108.094,12.9,,,,,80.1,0.01,-66,18
Qatar,QAT,Asia,2020-08-06,111805.0,178.0,508079.0,5100.0,1.77,73.596,0.395,86.11,2881060.0,227.322,31.9,1.307,0.617,116935.6,,176.69,16.52,0.8,26.9,,1.2,80.23,0.03503392189009977,51,25
Romania,ROU,Europe,2020-08-06,56550.0,2521.0,1295222.0,24629.0,1.28,62.969,0.126,87.04,19237682.0,85.12899999999999,43.0,17.85,11.69,23313.199,5.7,370.94599999999997,9.74,22.9,37.1,,6.892,76.05,0.19463844808071512,24,45
Russia,RUS,Europe,2020-08-06,867343.0,14532.0,29716907.0,312164.0,2.1390000000000002,5091.333,0.056,87.04,145934460.0,8.823,39.6,14.177999999999999,9.392999999999999,24765.953999999998,0.1,431.29699999999997,6.18,23.4,58.3,,8.05,72.58,0.04890145532305902,97,64
Rwanda,RWA,Africa,2020-08-06,2104.0,5.0,275385.0,4899.0,0.37799999999999995,1039.5,0.01,90.74,12952209.0,494.869,20.3,2.9739999999999998,1.642,1854.211,56.0,191.375,4.28,4.7,21.0,4.617,,69.02,0.0018156399222906115,30,-1
Saint Kitts and Nevis,KNA,North America,2020-08-06,17.0,0.0,,,,,,,53192.0,212.865,,,,24654.385,,,12.84,,,,2.3,76.23,0.01,-62,17
Saint Lucia,LCA,North America,2020-08-06,25.0,0.0,,,,,,,183629.0,293.187,34.9,9.721,6.405,12951.839,,204.62,11.62,,,87.20200000000001,1.3,76.2,0.01,-60,13
Saint Vincent and the Grenadines,VCT,North America,2020-08-06,56.0,0.0,,,,,,,110947.0,281.78700000000003,31.8,7.724,4.832,10727.146,,252.675,11.62,,,,2.6,72.53,0.01,-61,12
San Marino,SMR,Europe,2020-08-06,716.0,42.0,,,,,,92.59,33938.0,556.6669999999999,,,,56861.47,,,5.64,,,,3.8,84.97,0.01,12,43
Sao Tome and Principe,STP,Africa,2020-08-06,878.0,15.0,,,,,,,219161.0,212.84099999999998,18.7,2.886,2.162,3052.7140000000004,32.3,270.113,2.42,,,41.34,2.9,70.39,0.01,6,0
Saudi Arabia,SAU,Asia,2020-08-06,282824.0,3020.0,3570851.0,58172.0,1.671,32.29,0.194,94.44,34813867.0,15.322000000000001,31.9,3.295,1.845,49045.41099999999,,259.538,17.72,1.8,25.4,,2.7,75.13,0.08457367725508569,42,25
Senegal,SEN,Africa,2020-08-06,10538.0,214.0,115891.0,1455.0,0.087,28.0,0.524,77.78,16743930.0,82.32799999999999,18.7,3.008,1.796,2470.58,38.0,241.21900000000002,2.42,0.4,16.6,20.859,,67.94,0.1846562718416443,-14,14
Serbia,SRB,Europe,2020-08-06,27033.0,614.0,713104.0,10405.0,1.5290000000000001,122.269,0.306,100.0,6804596.0,80.291,41.2,17.366,,14048.881000000001,,439.415,10.08,37.7,40.2,97.719,5.609,76.0,0.08610244788978887,21,44
Seychelles,SYC,Africa,2020-08-06,126.0,0.0,,,,,,93.52,98340.0,208.354,36.2,8.606,5.586,26382.287,1.1,242.648,10.55,7.1,35.7,,3.6,73.4,0.01,55,-4
Sierra Leone,SLE,Africa,2020-08-06,1860.0,67.0,,,,,,94.44,7976985.0,104.7,19.1,2.5380000000000003,1.285,1390.3,52.2,325.721,2.42,8.8,41.3,19.275,,54.7,0.01,-11,8
Singapore,SGP,Asia,2020-08-06,54254.0,27.0,650702.0,9433.0,1.6119999999999999,47.464,0.586,85.19,5850343.0,7915.731,42.4,12.922,7.0489999999999995,85535.383,,92.243,10.99,5.2,28.3,,2.4,83.62,0.004149364839819149,103,1
Sint Maarten (Dutch part),SXM,North America,2020-08-06,160.0,16.0,,,,,,,42882.0,1209.088,,,,36327.232,,,,,,,,78.95,0.01,0,0
Slovakia,SVK,Europe,2020-08-06,2417.0,29.0,272322.0,4259.0,0.78,3005.333,0.077,87.04,5459643.0,113.12799999999999,41.2,15.07,9.167,30155.152000000002,0.7,287.959,7.29,23.1,37.7,,5.82,77.54,0.010649157982094726,19,48
Slovenia,SVN,Europe,2020-08-06,2208.0,118.0,134334.0,1185.0,0.57,4347.0,0.044,89.81,2078932.0,102.619,44.5,19.062,12.93,31400.84,,153.493,7.25,20.1,25.0,,4.5,81.32,0.08784075513272888,14,45
Somalia,SOM,Africa,2020-08-06,3221.0,93.0,,,,,,60.19,15893219.0,23.5,16.8,2.7310000000000003,1.496,,,365.769,6.05,,,9.831,0.9,57.4,0.01,49,8
South Africa,ZAF,Africa,2020-08-06,529877.0,9298.0,3113191.0,47675.0,0.804,65.59100000000001,0.28300000000000003,87.96,59308690.0,46.754,27.3,5.343999999999999,3.053,12294.876,18.9,200.38,5.52,8.1,33.2,43.993,2.32,64.13,0.2986646177507259,24,-28
South Korea,KOR,Asia,2020-08-06,14499.0,302.0,1588456.0,14519.0,0.28300000000000003,1878.333,0.047,82.41,51269183.0,527.967,43.4,13.914000000000001,8.622,35938.373999999996,0.2,85.99799999999999,6.8,6.2,40.9,,12.27,83.03,0.01901217282694642,127,36
South Sudan,SSD,Africa,2020-08-06,2450.0,47.0,,,,,,86.11,11193729.0,,19.2,3.4410000000000003,2.032,1569.888,,280.775,10.43,,,,,57.85,0.01,29,7
Spain,ESP,Europe,2020-08-05,305767.0,28752.0,4652493.0,45087.0,0.9640000000000001,131.121,0.278,85.19,46754783.0,93.105,45.5,19.436,13.799000000000001,34272.36,1.0,99.40299999999999,7.17,27.4,31.4,,2.97,83.56,0.6179912575902855,-4,39
Sri Lanka,LKA,Asia,2020-08-06,2839.0,11.0,,,,,,100.0,21413250.0,341.955,34.1,10.068999999999999,5.331,11669.077,0.7,197.093,10.68,0.3,27.0,,3.6,76.98,0.01,80,7
Sudan,SDN,Africa,2020-08-06,11780.0,763.0,,,,,,91.67,43849269.0,23.258000000000003,19.7,3.548,2.0340000000000003,4466.5070000000005,,431.38800000000003,15.67,,,23.436999999999998,0.8,65.31,0.01,29,14
Suriname,SUR,South America,2020-08-06,2050.0,27.0,,,,,,93.52,586634.0,3.612,29.6,6.933,4.229,13767.118999999999,,258.314,12.54,7.4,42.9,67.779,3.1,71.68,0.01,-56,4
Swaziland,SWZ,Africa,2020-08-06,2909.0,53.0,,,,,,89.81,1160164.0,79.492,21.5,3.1630000000000003,1.845,7738.975,,333.436,3.94,1.7,16.5,24.096999999999998,2.1,60.19,0.01,31,-26
Sweden,SWE,Europe,2020-08-06,81540.0,5760.0,,11686.0,1.157,43.512,0.079,46.3,10099270.0,24.718000000000004,41.0,19.985,13.433,46949.282999999996,0.5,133.982,4.79,18.8,18.9,,2.22,82.8,0.01,14,59
Switzerland,CHE,Europe,2020-08-06,35838.0,1705.0,815937.0,10088.0,1.166,833.0,0.185,73.15,8654618.0,214.243,43.1,18.436,12.644,57410.166,,99.73899999999999,5.59,22.6,28.9,,4.53,83.78,0.20896221154329317,8,46
Syria,SYR,Asia,2020-08-06,944.0,48.0,,,,,,86.11,17500657.0,,21.7,,2.577,,,376.264,,,,70.598,1.5,72.7,0.01,39,34
Taiwan,TWN,Asia,2020-08-06,477.0,7.0,82737.0,1467.0,0.062,3661.0,0.023,30.56,23816775.0,,42.2,,8.353,,,103.95700000000001,,,,,,80.46,0.008460543650361991,120,23
Tajikistan,TJK,Asia,2020-08-06,7625.0,61.0,,,,,,73.15,9537642.0,64.281,23.3,3.466,2.155,2896.913,4.8,427.69800000000004,7.11,,,72.704,4.8,71.1,0.01,70,38
Tanzania,TZA,Africa,2020-08-06,509.0,21.0,,,,,,50.0,59734213.0,64.699,17.7,3.108,1.874,2683.304,49.1,217.28799999999998,5.75,3.3,26.7,47.953,0.7,65.46,0.01,35,-6
Thailand,THA,Asia,2020-08-06,3330.0,58.0,381770.0,5924.0,0.085,3540.091,0.136,82.41,69799978.0,135.132,40.1,11.373,6.89,16277.671,0.1,109.861,7.04,1.9,38.8,90.67,2.1,77.15,0.01519239332582445,100,14
Timor,TLS,Asia,2020-08-06,25.0,0.0,,,,,,77.78,1318442.0,87.176,18.0,3.556,1.8969999999999998,6570.102,30.3,335.346,6.86,6.3,78.1,28.178,5.9,69.5,0.01,124,-9
Togo,TGO,Africa,2020-08-06,1001.0,21.0,43725.0,591.0,0.071,280.0,0.111,73.15,8278737.0,143.366,19.4,2.839,1.525,1429.8129999999999,49.2,280.033,6.15,0.9,14.2,10.475,0.7,61.04,0.048027444253859346,1,8
Trinidad and Tobago,TTO,North America,2020-08-06,199.0,8.0,,,,,,90.74,1399491.0,266.88599999999997,36.2,10.014,5.819,28763.071,,228.467,10.97,,,89.443,3.0,73.51,0.01,-60,10
Tunisia,TUN,Africa,2020-08-06,1601.0,51.0,95495.0,1343.0,0.114,3122.0,0.107,90.74,11818618.0,74.22800000000001,32.7,8.001,5.075,10849.296999999999,2.0,318.991,8.52,1.1,65.8,78.687,2.3,76.7,0.05340593748363789,9,33
Turkey,TUR,Asia,2020-08-06,236112.0,5784.0,5027308.0,56778.0,0.6729999999999999,54.517,0.158,77.78,84339067.0,104.914,31.6,8.152999999999999,5.061,25129.341,0.2,171.285,12.13,14.1,41.1,,2.81,77.69,0.1150516339957687,34,38
Turks and Caicos Islands,TCA,North America,2020-08-06,129.0,2.0,,,,,,,38718.0,37.312,,,,,,,,,,,,80.22,0.01,-71,21
Uganda,UGA,Africa,2020-08-06,1213.0,5.0,284790.0,3157.0,0.069,1676.5,0.005,93.52,45741000.0,213.75900000000001,16.4,2.168,1.308,1697.707,41.6,213.333,2.5,3.4,16.7,21.221999999999998,0.5,63.37,0.0017556796235822887,32,1
Ukraine,UKR,Europe,2020-08-06,75490.0,1788.0,1116641.0,14693.0,0.336,26.499,0.104,92.59,43733759.0,77.39,41.4,16.462,11.133,7894.393,0.1,539.849,7.11,13.5,47.4,,8.8,72.06,0.16012308342609666,31,49
United Arab Emirates,ARE,Asia,2020-08-06,61860.0,355.0,5262658.0,58646.0,5.93,5957.0,0.024,89.81,9890400.0,112.44200000000001,34.0,1.1440000000000001,0.526,67293.483,,317.84,17.26,1.2,37.4,,1.2,77.97,0.006745640700953777,53,24
United Kingdom,GBR,Europe,2020-08-06,307184.0,46364.0,10083427.0,137992.0,2.033,235.169,0.302,75.93,67886004.0,272.89799999999997,40.8,18.517,12.527000000000001,39753.244,0.2,122.137,4.28,20.0,24.7,,2.54,81.32,0.45980399322571586,-3,54
United States,USA,North America,2020-08-06,4823891.0,158256.0,58920975.0,822470.0,2.485,22.184,0.215,72.69,331002647.0,35.608000000000004,38.3,15.413,9.732000000000001,54225.445999999996,1.2,151.089,10.79,19.1,24.6,,2.77,78.86,0.26859026008989156,-100,39
United States Virgin Islands,VIR,North America,2020-08-06,501.0,9.0,,,,,,,104423.0,306.48,42.2,18.601,10.799000000000001,,,273.67,12.26,,,,,80.58,0.01,-64,17
Uruguay,URY,South America,2020-08-06,1309.0,37.0,124098.0,2181.0,0.628,2712.5,0.063,72.22,3473727.0,19.750999999999998,35.6,14.655,10.360999999999999,20551.409,0.1,160.708,6.93,14.0,19.9,,2.8,77.91,0.02981514609421586,-56,-32
Uzbekistan,UZB,Asia,2020-08-06,28069.0,173.0,,,,,,96.3,33469199.0,76.134,28.2,4.468999999999999,2.873,6253.104,,724.4169999999999,7.57,1.3,24.7,,4.0,71.72,0.01,63,41
Vatican,VAT,Europe,2020-08-06,12.0,0.0,,,,,,,809.0,,,,,,,,,,,,,75.12,0.01,12,41
Venezuela,VEN,South America,2020-08-06,22299.0,195.0,,,,,,87.04,28435943.0,36.253,29.0,6.614,3.915,16745.022,,204.85,6.47,,,,0.8,72.06,0.01,-66,8
Vietnam,VNM,Asia,2020-08-06,717.0,9.0,261004.0,10906.0,0.11199999999999999,47299.0,0.017,96.3,97338583.0,308.127,32.6,7.15,4.718,6171.884,2.0,245.465,6.0,1.0,45.9,85.84700000000001,2.6,75.4,0.0034482230157392223,108,13
Western Sahara,ESH,Africa,2020-08-06,766.0,1.0,,,,,,,597330.0,,28.4,,1.38,,,,,,,,,70.26,0.01,-13,24
World,OWID_WRL,,2020-08-06,18793522.0,707715.0,,,,,,,7794798729.0,58.045,30.9,8.696,5.355,15469.207,10.0,233.07,8.51,6.434,34.635,60.13,2.705,72.58,0.01,-77,38
Yemen,YEM,Asia,2020-08-06,1764.0,508.0,,,,,,58.33,29825968.0,53.508,20.3,2.9219999999999997,1.5830000000000002,1479.1470000000002,18.8,495.00300000000004,5.35,7.6,29.2,49.542,0.7,66.12,0.01,47,16
Zambia,ZMB,Africa,2020-08-06,7022.0,176.0,,,,,,70.83,18383956.0,22.995,17.7,2.48,1.5419999999999998,3689.2509999999997,57.5,234.49900000000002,3.94,3.1,24.7,13.937999999999999,2.0,63.89,0.01,27,-14
Zimbabwe,ZWE,Africa,2020-08-06,4339.0,84.0,64634.0,2039.0,0.13699999999999998,1127.0,0.165,87.96,14862927.0,42.729,19.6,2.822,1.882,1899.775,21.4,307.846,1.82,1.6,30.7,36.791,1.7,61.49,0.12996255840579263,29,-18
